%YAML 1.1
%TAG !u! tag:unity3d.com,2011:
--- !u!1045 &1
EditorBuildSettings:
  m_ObjectHideFlags: 0
  serializedVersion: 2
  m_Scenes: []
  m_configObjects:
    Unity.XR.Oculus.Settings: {fileID: 11400000, guid: e824d01b812d74e87bfaabd06b2ef207, type: 2}
    com.unity.xr.management.loader_settings: {fileID: 11400000, guid: 0d55e4d04b376425b96ef5ff43d6ec61, type: 2}
